Id,Date,Reporter,Topic,Content
0,2016/12/30,刘俊,ReactAndMore-前端（可视化）标准,主要介绍了前端开发的关键技术，React、MaterialDesign、motion periodic table
1,2017/1/5,高阳,信息可视化论文写作——论文类型,"介绍“Process and Pitfalls in Writing Information Visualization Research Papers[M]. Springer-Verlag, 2008”的第二节关于论文类型的内容"
1,2017/1/5,余敏槠,讲习班培训心得分享,关于论文写作方面的内容介绍
2,2017/1/12,王杨,中科院国际科技交流与合作情况成果展示,近期做的中科院国际科技交流与合作可视化工作的成果展示
2,2017/1/12,齐帅,小程序,小程序相关技术分享，还介绍了分词算法，及小程序的价值
2,2017/1/12,杨笑笑,购物可视化设计,购物行为可视化效果图设计，征集意见
3,2017/1/19,李观,,
3,2017/1/19,程世宇,学习汇报,
4,2017/1/26,春节假期,,
5,2017/2/2,春节假期,,
6,2017/2/9,节后第一周,,
7,2017/2/16,李镇阳,Hbuilder介绍,
7,2017/2/16,刘俊,WebGL,
8,2017/2/23,田东,视觉设计-颜色与可视化,
8,2017/2/23,高阳,Insitu论文解读,
9,2017/3/2,余敏槠,伪元素,
9,2017/3/2,王杨,出访人员信息可视化,
10,2017/3/9,齐帅,共享单车之战,
10,2017/3/9,杨笑笑,2048游戏编码逻辑分享,
11,2017/3/16,李观,实验室AR、VR项目总体介绍,
11,2017/3/16,李镇阳,数字签名,
12,2017/3/23,刘俊,实时绘制技术,
12,2017/3/23,高阳,Insitu论文解读（磁通涡旋原位可视化-郭翰奇）,论文内容和写作启示
13,2017/3/30,时间不足，没有讲,,
14,2017/4/6,节后第二天，组会停开一次,,
15,2017/4/13,田东,颜色与可视化,
15,2017/4/13,高阳,大气污染相关可视化调研,
16,2017/4/20,余敏槠,,
16,2017/4/20,无,空缺一次,
17,2017/4/28,王杨,国际合作项目进展汇报,
17,2017/4/28,杨笑笑,A Visual Network Analysis Method for Large Scale Parallel I/O Systems 论文介绍,
18,2017/5/5,组会暂停一次,,
19,2017/5/12,韩晓阳,Unity3D与科学可视化,
20,2017/5/19,齐帅,毕业论文预答辩,
20,2017/5/19,李观,毕业论文预答辩,
21,2017/5/25,李镇阳,APP弹窗体系,
21,2017/5/25,刘俊,Isosurface visualization of data with Nonparamatric models for uncertainty,
